Project 1: Exploratory Data Analysis
…
Mutate function

fulldata <- fulldata %>% mutate(avg_crime = (Murder + Rape + 
    Assault)/3)

Select function

fulldata %>% select(State, Murder, Assault, Rape, avg_crime, 
    everything())

## # A tibble: 50 x 13
##    State Murder Assault  Rape avg_crime UrbanPop region   pop percent dollars
##    <chr>  <dbl>   <dbl> <dbl>     <dbl>    <dbl> <chr>  <dbl>   <dbl>   <dbl>
##  1 Alab…   13.2     236  21.2      90.1       58 ESC     4041       8    3.65
##  2 Alas…   10       263  44.5     106.        48 PAC      550      42    7.89
##  3 Ariz…    8.1     294  31       111.        80 MTN     3665      25    4.23
##  4 Arka…    8.8     190  19.5      72.8       50 WSC     2351       6    3.33
##  5 Cali…    9       276  40.6     109.        91 PAC    29760      45    4.83
##  6 Colo…    7.9     204  38.7      83.5       78 MTN     3294      28    4.81
##  7 Conn…    3.3     110  11.1      41.5       77 NE      3287      74    7.91
##  8 Dela…    5.9     238  15.8      86.6       72 SA       666      58    6.02
##  9 Flor…   15.4     335  31.9     127.        80 SA     12938      44    5.15
## 10 Geor…   17.4     211  25.8      84.7       60 SA      6478      57    4.86
## # … with 40 more rows, and 3 more variables: pay <dbl>, SATV <dbl>, SATM <dbl>

Arrange function

fulldata %>% arrange(desc(avg_crime))

## # A tibble: 50 x 13
##    State Murder Assault UrbanPop  Rape region   pop percent dollars   pay  SATV
##    <chr>  <dbl>   <dbl>    <dbl> <dbl> <chr>  <dbl>   <dbl>   <dbl> <dbl> <dbl>
##  1 Flor…   15.4     335       80  31.9 SA     12938      44    5.15    30   418
##  2 Nort…   13       337       45  16.1 SA      6629      55    4.80    29   401
##  3 Mary…   11.3     300       67  27.8 SA      4781      59    6.18    38   430
##  4 Ariz…    8.1     294       80  31   MTN     3665      25    4.23    30   445
##  5 New …   11.4     285       70  32.1 MTN     1515      12    4.45    26   480
##  6 Cali…    9       276       91  40.6 PAC    29760      45    4.83    39   419
##  7 Alas…   10       263       48  44.5 PAC      550      42    7.89    43   438
##  8 Sout…   14.4     279       48  22.5 SA      3487      54    4.33    28   397
##  9 Neva…   12.2     252       81  46   MTN     1202      24    4.56    32   434
## 10 Mich…   12.1     255       74  35.1 ENC     9295      12    5.26    38   454
## # … with 40 more rows, and 2 more variables: SATM <dbl>, avg_crime <dbl>

fulldata %>% arrange(desc(Rape))

## # A tibble: 50 x 13
##    State Murder Assault UrbanPop  Rape region   pop percent dollars   pay  SATV
##    <chr>  <dbl>   <dbl>    <dbl> <dbl> <chr>  <dbl>   <dbl>   <dbl> <dbl> <dbl>
##  1 Neva…   12.2     252       81  46   MTN     1202      24    4.56    32   434
##  2 Alas…   10       263       48  44.5 PAC      550      42    7.89    43   438
##  3 Cali…    9       276       91  40.6 PAC    29760      45    4.83    39   419
##  4 Colo…    7.9     204       78  38.7 MTN     3294      28    4.81    31   456
##  5 Mich…   12.1     255       74  35.1 ENC     9295      12    5.26    38   454
##  6 New …   11.4     285       70  32.1 MTN     1515      12    4.45    26   480
##  7 Flor…   15.4     335       80  31.9 SA     12938      44    5.15    30   418
##  8 Ariz…    8.1     294       80  31   MTN     3665      25    4.23    30   445
##  9 Oreg…    4.9     159       67  29.3 PAC     2842      49    5.29    32   439
## 10 Miss…    9       178       70  28.2 WNC     5117      12    4.42    28   473
## # … with 40 more rows, and 2 more variables: SATM <dbl>, avg_crime <dbl>

fulldata %>% arrange(desc(Murder))

## # A tibble: 50 x 13
##    State Murder Assault UrbanPop  Rape region   pop percent dollars   pay  SATV
##    <chr>  <dbl>   <dbl>    <dbl> <dbl> <chr>  <dbl>   <dbl>   <dbl> <dbl> <dbl>
##  1 Geor…   17.4     211       60  25.8 SA      6478      57    4.86    29   401
##  2 Miss…   16.1     259       44  17.1 ESC     2573       4    3.32    24   477
##  3 Flor…   15.4     335       80  31.9 SA     12938      44    5.15    30   418
##  4 Loui…   15.4     249       66  22.2 WSC     4220       9    4.01    26   476
##  5 Sout…   14.4     279       48  22.5 SA      3487      54    4.33    28   397
##  6 Alab…   13.2     236       58  21.2 ESC     4041       8    3.65    27   470
##  7 Tenn…   13.2     188       59  26.9 ESC     4877      12    3.71    28   483
##  8 Nort…   13       337       45  16.1 SA      6629      55    4.80    29   401
##  9 Texas   12.7     201       80  25.5 WSC    16987      42    4.24    28   413
## 10 Neva…   12.2     252       81  46   MTN     1202      24    4.56    32   434
## # … with 40 more rows, and 2 more variables: SATM <dbl>, avg_crime <dbl>

fulldata %>% arrange(desc(Assault))

## # A tibble: 50 x 13
##    State Murder Assault UrbanPop  Rape region   pop percent dollars   pay  SATV
##    <chr>  <dbl>   <dbl>    <dbl> <dbl> <chr>  <dbl>   <dbl>   <dbl> <dbl> <dbl>
##  1 Nort…   13       337       45  16.1 SA      6629      55    4.80    29   401
##  2 Flor…   15.4     335       80  31.9 SA     12938      44    5.15    30   418
##  3 Mary…   11.3     300       67  27.8 SA      4781      59    6.18    38   430
##  4 Ariz…    8.1     294       80  31   MTN     3665      25    4.23    30   445
##  5 New …   11.4     285       70  32.1 MTN     1515      12    4.45    26   480
##  6 Sout…   14.4     279       48  22.5 SA      3487      54    4.33    28   397
##  7 Cali…    9       276       91  40.6 PAC    29760      45    4.83    39   419
##  8 Alas…   10       263       48  44.5 PAC      550      42    7.89    43   438
##  9 Miss…   16.1     259       44  17.1 ESC     2573       4    3.32    24   477
## 10 Mich…   12.1     255       74  35.1 ENC     9295      12    5.26    38   454
## # … with 40 more rows, and 2 more variables: SATM <dbl>, avg_crime <dbl>
…
## # A tibble: 1 x 22
##   Murder_min Assault_min UrbanPop_min Rape_min pop_min percent_min dollars_min
##        <dbl>       <dbl>        <dbl>    <dbl>   <dbl>       <dbl>       <dbl>
## 1        0.8          45           32      7.3     454           4        2.99
## # … with 15 more variables: pay_min <dbl>, SATV_min <dbl>, SATM_min <dbl>,
## #   avg_crime_min <dbl>, Murder_max <dbl>, Assault_max <dbl>,
## #   UrbanPop_max <dbl>, Rape_max <dbl>, pop_max <dbl>, percent_max <dbl>,
## #   dollars_max <dbl>, pay_max <dbl>, SATV_max <dbl>, SATM_max <dbl>,
## #   avg_crime_max <dbl>

Summary Statistic 9

fulldata %>% summarize(var(SATV), var(SATM))

## # A tibble: 1 x 2
##   `var(SATV)` `var(SATM)`
##         <dbl>       <dbl>
## 1        937.       1153.

Summary Statistic 10

corfulldata <- fulldata %>% select_if(is.numeric)
cor(corfulldata)

##                Murder     Assault    UrbanPop        Rape        pop
## Murder     1.00000000  0.80187331  0.06957262  0.56357883  0.3439687
## Assault    0.80187331  1.00000000  0.25887170  0.66524123  0.3638514
## UrbanPop   0.06957262  0.25887170  1.00000000  0.41134124  0.5125376
## Rape       0.56357883  0.66524123  0.41134124  1.00000000  0.3652253
## pop        0.34396866  0.36385136  0.51253765  0.36522529  1.0000000
## percent   -0.04665047  0.08661416  0.26742896 -0.03593469  0.2393264
## dollars   -0.15875745 -0.01500860  0.33617453 -0.02811489  0.1897784
## pay       -0.01247115  0.19978140  0.52387371  0.28956891  0.4041393
## SATV      -0.26317095 -0.31271631 -0.27447505 -0.18672386 -0.3668112
##               percent     dollars         pay       SATV       SATM   avg_crime
## Murder    -0.04665047 -0.15875745 -0.01247115 -0.2631709 -0.2920867  0.81887139
## Assault    0.08661416 -0.01500860  0.19978140 -0.3127163 -0.3485260  0.99666034
## UrbanPop   0.26742896  0.33617453  0.52387371 -0.2744751 -0.1467695  0.27555691
## Rape      -0.03593469 -0.02811489  0.28956891 -0.1867239 -0.1418267  0.72034452
## pop        0.23932641  0.18977844  0.40413934 -0.3668112 -0.2650858  0.37742744
## percent    1.00000000  0.69637226  0.64753990 -0.8577610 -0.8515144  0.07152453
## dollars    0.69637226  1.00000000  0.84118429 -0.5032199 -0.4453652 -0.02362125
## pay        0.64753990  0.84118429  1.00000000 -0.5380999 -0.4580104  0.20677516
## SATV      -0.85776100 -0.50321987 -0.53809990  1.0000000  0.9617535 -0.31011349
##  [ reached getOption("max.print") -- omitted 2 rows ]
…
